{"id":2737795542,"name":"r91vizq","latitude":-69,"longitude":79}
{"id":1841319446,"name":"o6eag42qua","latitude":-31,"longitude":16}
{"id":1896155859,"name":"ozcx29id","latitude":13,"longitude":38}
{"id":1444694748,"name":"6xc545m","latitude":-29,"longitude":-32}
{"id":2143351828,"name":"bcvm20lx","latitude":-47,"longitude":133}
{"id":3237607079,"name":"17h86umlo","latitude":15,"longitude":-3}
{"id":715773102,"name":"p1xnnarsp","latitude":41,"longitude":110}
{"id":1811841849,"name":"kmhrq2kpdk","latitude":-33,"longitude":20}
{"id":2432949338,"name":"ky1wapal","latitude":47,"longitude":162}
{"id":1182564052,"name":"t41vzfde8m","latitude":75,"longitude":59}
{"id":1791616714,"name":"qledwhms","latitude":-51,"longitude":102}
{"id":2929716544,"name":"8usb9z","latitude":-85,"longitude":-140}
{"id":3168603092,"name":"bg94v0fhy","latitude":0,"longitude":68}
{"id":418975028,"name":"hywsyzb","latitude":70,"longitude":-172}
{"id":2927840360,"name":"zujt4zj71","latitude":-24,"longitude":-85}
{"id":1800079286,"name":"pxodxfqg","latitude":-61,"longitude":126}
{"id":2662452261,"name":"6bjspi","latitude":77,"longitude":27}
{"id":1851817462,"name":"rgbmzglu3x","latitude":53,"longitude":142}
{"id":3316269322,"name":"31i3n7l4","latitude":-38,"longitude":54}
{"id":364390301,"name":"wnp7zwo","latitude":-46,"longitude":23}
{"id":1247071280,"name":"swdw5o","latitude":31,"longitude":101}
{"id":1350335053,"name":"1eqpb0kr1l","latitude":57,"longitude":111}
{"id":1793917252,"name":"fww4oryzzk","latitude":1,"longitude":-70}
{"id":860175862,"name":"92r8jwdb1","latitude":54,"longitude":-111}
{"id":339872524,"name":"kb0pew67g","latitude":1,"longitude":21}
{"id":787166883,"name":"7ok8wx75rm","latitude":-76,"longitude":80}
{"id":945731253,"name":"m08zuylmm","latitude":-64,"longitude":54}
{"id":1827375821,"name":"1mpmrgp","latitude":-87,"longitude":-20}
{"id":3113139321,"name":"lawfz38","latitude":-10,"longitude":84}
{"id":2475359420,"name":"kza2hvbb3a","latitude":58,"longitude":171}
{"id":1642949658,"name":"kqywcdbm","latitude":65,"longitude":52}
{"id":2161420167,"name":"hu7bz1g","latitude":33,"longitude":-15}
{"id":1788539771,"name":"4s313q","latitude":21,"longitude":167}
{"id":3898560216,"name":"n6pg35l","latitude":-48,"longitude":94}
{"id":579790595,"name":"ltowhr15","latitude":69,"longitude":-84}
{"id":2660897913,"name":"oorxby","latitude":54,"longitude":-56}
{"id":3227512018,"name":"cn41ammxpl","latitude":10,"longitude":-3}
{"id":2934622370,"name":"h6r9frra","latitude":71,"longitude":4}
{"id":2134557698,"name":"krgmr5umj7","latitude":-69,"longitude":165}
{"id":634737997,"name":"zbqtc7hal","latitude":90,"longitude":100}
{"id":1805887097,"name":"pgjx5vnyj","latitude":-11,"longitude":49}
{"id":2933702389,"name":"j4s6r34","latitude":28,"longitude":-67}
{"id":2297228796,"name":"bhrayx2rw","latitude":33,"longitude":155}
{"id":2826113243,"name":"pyc8i6cp3","latitude":-87,"longitude":-120}
{"id":4021147953,"name":"v3b6gx99","latitude":8,"longitude":-162}
{"id":3410646880,"name":"pj33ogx0x","latitude":24,"longitude":126}
{"id":1387661598,"name":"hwyty4","latitude":-11,"longitude":-34}
{"id":938322409,"name":"s21kcdx3","latitude":72,"longitude":-73}
{"id":4205104111,"name":"baj7nb","latitude":53,"longitude":-30}
{"id":589207462,"name":"d53a5y","latitude":-13,"longitude":-31}
{"id":1589659204,"name":"1wmh0vw2e","latitude":-85,"longitude":127}
{"id":1254520783,"name":"xeetmz87","latitude":-39,"longitude":3}
{"id":1210706993,"name":"xj5od73fd","latitude":89,"longitude":-111}
{"id":272874164,"name":"8e5hh9dn5","latitude":30,"longitude":-105}
{"id":945356451,"name":"oonj0ho9vr","latitude":-73,"longitude":93}
{"id":818389390,"name":"2zrch32atx","latitude":54,"longitude":-40}
{"id":669802956,"name":"mk26tiafg","latitude":62,"longitude":118}
{"id":1156407505,"name":"bx7a65","latitude":-22,"longitude":81}
{"id":2066943325,"name":"djad0kjc","latitude":-13,"longitude":7}
{"id":2097526933,"name":"eyp0zzwfum","latitude":-12,"longitude":161}
{"id":1306280425,"name":"nj79aiy","latitude":-51,"longitude":172}
{"id":1114828990,"name":"joy6eg","latitude":24,"longitude":-87}
{"id":1451347697,"name":"tg8exwdzv","latitude":-24,"longitude":-90}
{"id":77290663,"name":"5fqo9r8018","latitude":-85,"longitude":150}
{"id":3409814879,"name":"u78n65","latitude":65,"longitude":-176}
{"id":416250723,"name":"lkcpeeae7","latitude":44,"longitude":111}
{"id":399044499,"name":"2npyln","latitude":-5,"longitude":54}
{"id":1919303840,"name":"nb8eg9","latitude":20,"longitude":-170}
{"id":3791154660,"name":"cad33afdv","latitude":-83,"longitude":-15}
{"id":87906901,"name":"hqbvvj0","latitude":71,"longitude":142}
{"id":2111456798,"name":"saqb7z","latitude":-62,"longitude":-140}
{"id":2578863112,"name":"knwhqg","latitude":-41,"longitude":89}
{"id":2060384154,"name":"33yivb8y","latitude":73,"longitude":-140}
{"id":475995785,"name":"1fncqeu2s","latitude":40,"longitude":-129}
{"id":2805243395,"name":"oui6tv5u","latitude":45,"longitude":-179}
{"id":2676438934,"name":"vy0hy753","latitude":6,"longitude":89}
{"id":2632489673,"name":"ymi3k7l8","latitude":37,"longitude":-101}
{"id":414584574,"name":"2uzdaf","latitude":37,"longitude":119}
{"id":281995774,"name":"83jkl6","latitude":-13,"longitude":135}
{"id":2525374703,"name":"2v65rv7q","latitude":31,"longitude":97}
{"id":1970467108,"name":"r22f56sa","latitude":65,"longitude":154}
{"id":2053624381,"name":"p7mmw38c","latitude":-86,"longitude":-107}
{"id":3314784748,"name":"jqwqbhv","latitude":-10,"longitude":-143}
{"id":2370487542,"name":"tmaeubre","latitude":-69,"longitude":117}
{"id":2506526788,"name":"vdxcu1fr","latitude":38,"longitude":27}
{"id":2052281735,"name":"ldaz0qkz","latitude":-34,"longitude":-142}
{"id":2812673282,"name":"kwcj9qn","latitude":39,"longitude":113}
{"id":3289242040,"name":"9d6hgkme","latitude":50,"longitude":7}
{"id":1755980125,"name":"r6eute0","latitude":65,"longitude":163}
{"id":178013619,"name":"s7159y7","latitude":-18,"longitude":45}
{"id":2240393656,"name":"rooe0p535h","latitude":62,"longitude":-6}
{"id":2518109166,"name":"a16je4lvsv","latitude":-20,"longitude":3}
{"id":4087481024,"name":"2lpeju","latitude":33,"longitude":164}
{"id":354519848,"name":"pq8mtnq","latitude":-74,"longitude":-153}
{"id":1784569022,"name":"13y32x","latitude":26,"longitude":103}
{"id":1329856126,"name":"opy1t22y8","latitude":-55,"longitude":-146}
{"id":1982614313,"name":"c1wugnrkx","latitude":0,"longitude":112}
{"id":1352365363,"name":"f8ibudpn","latitude":-87,"longitude":31}
{"id":3905926041,"name":"11sq1i","latitude":-23,"longitude":-20}
{"id":1567849021,"name":"y4felv","latitude":18,"longitude":125}
{"id":1470798665,"name":"lwhdg7iuh","latitude":17,"longitude":67}
{"id":18318562,"name":"rlascy","latitude":2,"longitude":-153}
{"id":494347420,"name":"y2afh21ab","latitude":25,"longitude":94}
{"id":1531819794,"name":"5yzls4r8","latitude":66,"longitude":128}
{"id":782572666,"name":"cdn6wqrvd","latitude":76,"longitude":-1}
{"id":4191862516,"name":"kl3nj9au","latitude":8,"longitude":71}
{"id":3060672503,"name":"cp6yqioy","latitude":-40,"longitude":-110}
{"id":3383386671,"name":"jnucfiz","latitude":59,"longitude":-102}
{"id":1838335463,"name":"wu82wwqauw","latitude":71,"longitude":32}
{"id":4217966441,"name":"03my4c1","latitude":75,"longitude":-112}
{"id":1591598649,"name":"g4tp8t1","latitude":10,"longitude":101}
{"id":3450096464,"name":"tbhf7v1wrb","latitude":32,"longitude":-74}
{"id":841892880,"name":"9al6j6mdwe","latitude":-34,"longitude":155}
{"id":913207744,"name":"f1co0tchr","latitude":72,"longitude":107}
{"id":2925298837,"name":"dm62pcw9y","latitude":11,"longitude":77}
{"id":880929342,"name":"238g9s","latitude":-90,"longitude":-87}
{"id":1552225941,"name":"bn7yf8gfr","latitude":8,"longitude":14}
{"id":211510796,"name":"nuzfewh16o","latitude":72,"longitude":-48}
{"id":938488212,"name":"rsabsqd","latitude":61,"longitude":-86}
{"id":3487757577,"name":"meglluivbf","latitude":-52,"longitude":-118}
{"id":2246866251,"name":"a5l18lr0yu","latitude":-10,"longitude":83}
{"id":3511418586,"name":"lwpoam634","latitude":-26,"longitude":-33}
{"id":2353287061,"name":"pad9ws","latitude":-28,"longitude":79}
{"id":3803005318,"name":"f9epmu6qev","latitude":-73,"longitude":42}
{"id":310177877,"name":"ydx8vrdig","latitude":37,"longitude":-117}
{"id":2628480617,"name":"rbj4hsxx","latitude":55,"longitude":-115}
{"id":3563095194,"name":"egugm8cmw","latitude":19,"longitude":82}
{"id":2515385710,"name":"ijs2il5","latitude":18,"longitude":45}
{"id":2947649285,"name":"dr60y4lvr","latitude":56,"longitude":-14}
{"id":3899606767,"name":"2t2ivjrvqe","latitude":20,"longitude":63}
{"id":3811108815,"name":"eaqwqp","latitude":18,"longitude":-138}
{"id":3681436062,"name":"qypebmhxlw","latitude":-24,"longitude":-10}
{"id":4005619905,"name":"z46x3ke","latitude":-12,"longitude":115}
{"id":1444103032,"name":"to6vlh3wpg","latitude":-13,"longitude":150}
{"id":3621601089,"name":"jvsewcls","latitude":-52,"longitude":43}
{"id":2332185552,"name":"cnxnjfj0c","latitude":39,"longitude":-28}
{"id":977927414,"name":"fq36ead7bs","latitude":-4,"longitude":-171}
{"id":2034006525,"name":"7dmubyb8h","latitude":51,"longitude":45}
{"id":3259322014,"name":"j2qr6kj","latitude":-10,"longitude":-25}
{"id":3131200213,"name":"dqk9b9kbw","latitude":-23,"longitude":-166}
{"id":1205170562,"name":"tmnt4qlu","latitude":-4,"longitude":50}
{"id":3864514315,"name":"bntbnowz","latitude":-35,"longitude":-178}
{"id":3449627877,"name":"ccjqqi","latitude":8,"longitude":-22}
{"id":4157841767,"name":"3wd09h67xu","latitude":0,"longitude":132}
{"id":4237557831,"name":"wu6pir5if","latitude":-76,"longitude":-152}
{"id":352496310,"name":"et68n6h","latitude":60,"longitude":107}
{"id":2680761145,"name":"4ghmjgz7o","latitude":48,"longitude":-81}
{"id":1077387375,"name":"uzdxv0ytc8","latitude":-14,"longitude":-160}
{"id":4264014298,"name":"y7oz9ibb","latitude":38,"longitude":1}
{"id":141547632,"name":"lofakgl7t1","latitude":-8,"longitude":136}
{"id":2241181573,"name":"r8ijz2dfwm","latitude":68,"longitude":-54}
{"id":2816856412,"name":"pnmm0jv2","latitude":-15,"longitude":57}
{"id":1907168801,"name":"whal0ghq","latitude":-13,"longitude":-108}
{"id":762477232,"name":"dbdzfstjpb","latitude":-44,"longitude":74}
{"id":3699365793,"name":"iixg50lfqa","latitude":-89,"longitude":102}
{"id":4093233283,"name":"piguv3cbtb","latitude":-23,"longitude":40}
{"id":3022455145,"name":"jfu6p0op2","latitude":-61,"longitude":-45}
{"id":2100188863,"name":"b49oje","latitude":86,"longitude":108}
{"id":2572219200,"name":"tgl9ga","latitude":-15,"longitude":3}
{"id":346725557,"name":"ve9k5y1x","latitude":-39,"longitude":168}
{"id":4091541712,"name":"pdcopj89","latitude":-55,"longitude":124}
{"id":41644134,"name":"rfrf6fosc","latitude":45,"longitude":-87}
{"id":300255792,"name":"mpssdyzs","latitude":-35,"longitude":68}
{"id":1742069589,"name":"iqor1zb25","latitude":-36,"longitude":161}
{"id":1748366216,"name":"kcgx1a4","latitude":-61,"longitude":164}
{"id":154980678,"name":"73x6z5","latitude":-72,"longitude":-62}
{"id":3913293311,"name":"luj4zokw0","latitude":62,"longitude":-3}
{"id":1785941457,"name":"mdhijb","latitude":65,"longitude":-11}
{"id":2814632207,"name":"y0z9d1lw0x","latitude":77,"longitude":139}
{"id":3320574740,"name":"82z42svz","latitude":0,"longitude":-119}
{"id":2497249379,"name":"uwdsdqwb","latitude":81,"longitude":-48}
{"id":2079114656,"name":"s6lfgrl","latitude":45,"longitude":-139}
{"id":1520690521,"name":"mefgcujx","latitude":-54,"longitude":-29}
{"id":295847502,"name":"bkxq0r","latitude":65,"longitude":80}
{"id":3106512729,"name":"p2q2vp","latitude":-50,"longitude":138}
{"id":24992243,"name":"mhykp0","latitude":-25,"longitude":176}
{"id":1594983679,"name":"88qrtzkx","latitude":-69,"longitude":118}
{"id":2043992114,"name":"81igaxoeo9","latitude":-46,"longitude":67}
{"id":2600850403,"name":"iirbj88","latitude":-59,"longitude":40}
{"id":2801364211,"name":"lntzncq","latitude":20,"longitude":-140}
{"id":3446092483,"name":"w3p5vmby","latitude":-88,"longitude":-158}
{"id":2551211148,"name":"z295ks45dx","latitude":-44,"longitude":111}
{"id":1801156548,"name":"uo5vg470fi","latitude":47,"longitude":-176}
{"id":3330913860,"name":"nz1vgo8","latitude":81,"longitude":135}
{"id":3679223653,"name":"zu8qco","latitude":-75,"longitude":-146}
{"id":2233508457,"name":"p7a9ogp6x5","latitude":-58,"longitude":-15}
{"id":25688198,"name":"bkwwo7ckdx","latitude":18,"longitude":28}
{"id":154293988,"name":"yq9ffw9y8","latitude":2,"longitude":117}
{"id":2005920581,"name":"og78gjus","latitude":71,"longitude":180}
{"id":1010375424,"name":"9nlwlv","latitude":-62,"longitude":40}
{"id":3613285626,"name":"gr5cal","latitude":16,"longitude":44}
{"id":1226911556,"name":"vvca2jm","latitude":-19,"longitude":137}
{"id":368985045,"name":"x4k89w","latitude":-34,"longitude":50}
{"id":1606084582,"name":"ff5iad","latitude":28,"longitude":32}
{"id":3568138923,"name":"7fq25b062b","latitude":38,"longitude":63}
{"id":3950188327,"name":"hsfugu","latitude":28,"longitude":128}
{"id":1623289553,"name":"ft3zkzz4","latitude":15,"longitude":-16}
{"id":4094345514,"name":"21k9yg","latitude":-29,"longitude":168}
{"id":2124245702,"name":"v5lu87lc28","latitude":52,"longitude":129}
{"id":401791485,"name":"ihos7c3fh9","latitude":61,"longitude":-176}
{"id":1423668885,"name":"6qbo01kf","latitude":-89,"longitude":37}
{"id":855970216,"name":"bjbxr6","latitude":-48,"longitude":180}
{"id":690054857,"name":"vx3xo07c91","latitude":-42,"longitude":-68}
{"id":2024642328,"name":"apt8g2xl8","latitude":-33,"longitude":168}
{"id":2235370594,"name":"eue5yok","latitude":-47,"longitude":64}
{"id":3293342630,"name":"ecr07yg8k7","latitude":-44,"longitude":-60}
{"id":3151234077,"name":"dyugw1657","latitude":42,"longitude":151}
{"id":2976483756,"name":"uwsxj32","latitude":52,"longitude":-87}
{"id":3040332425,"name":"c1zbbx","latitude":30,"longitude":-164}
{"id":789801722,"name":"3uh6ca","latitude":8,"longitude":138}
{"id":3944303379,"name":"2ple29","latitude":-84,"longitude":140}
{"id":2744925290,"name":"tm74qix9g","latitude":-64,"longitude":-136}
{"id":1847611816,"name":"jdwghxjh6","latitude":-66,"longitude":-39}
{"id":961385437,"name":"ek7m2vxtng","latitude":48,"longitude":76}
{"id":2946821818,"name":"nj3zbt6psm","latitude":87,"longitude":163}
{"id":2135610909,"name":"qvteyuvn","latitude":68,"longitude":-105}
{"id":596053349,"name":"xa0famvvdr","latitude":22,"longitude":160}
{"id":2628565055,"name":"t5gp5b7j7c","latitude":59,"longitude":84}
{"id":1020537383,"name":"slefxh","latitude":89,"longitude":-37}
{"id":3661960230,"name":"arxn2i","latitude":-87,"longitude":160}
{"id":1108816973,"name":"b5cvxd","latitude":-79,"longitude":172}
{"id":646905485,"name":"ef7sbto0tu","latitude":37,"longitude":-137}
{"id":3445549605,"name":"99l85w","latitude":-28,"longitude":-88}
{"id":1160174135,"name":"4r7eaqfc","latitude":-37,"longitude":-172}
{"id":2582369885,"name":"cyiby6","latitude":-52,"longitude":-178}
{"id":293117822,"name":"j1a8n0","latitude":55,"longitude":137}
{"id":1950173564,"name":"9qp0jrz","latitude":42,"longitude":1}
{"id":1001494233,"name":"6021azc","latitude":13,"longitude":-62}
{"id":3301873245,"name":"uwyy4fzv9u","latitude":32,"longitude":-64}
{"id":3848670857,"name":"i506drc","latitude":59,"longitude":-57}
{"id":456027134,"name":"xtbqve1","latitude":64,"longitude":-35}
{"id":2927629747,"name":"4vwah7n","latitude":50,"longitude":-142}
{"id":3628699150,"name":"wdqre8zy","latitude":58,"longitude":-17}
{"id":1412683610,"name":"zz42p68oi","latitude":-45,"longitude":90}
{"id":3223815722,"name":"cbru96jwv","latitude":-19,"longitude":167}
{"id":1928760215,"name":"ner3mxq1g","latitude":-1,"longitude":97}
{"id":2715139553,"name":"y42smoqg","latitude":55,"longitude":0}
{"id":3234736326,"name":"54v7vb","latitude":-81,"longitude":-154}
{"id":2155685173,"name":"yvz41ruk","latitude":-84,"longitude":90}
{"id":3687971656,"name":"i1mq6e9ax","latitude":-14,"longitude":27}
{"id":2227707681,"name":"x4holp","latitude":44,"longitude":-25}
{"id":192204429,"name":"xwdsjaz6","latitude":-83,"longitude":-106}
{"id":3276471464,"name":"z2r42o8q","latitude":-7,"longitude":-172}
{"id":635159209,"name":"iyeob4","latitude":-65,"longitude":-81}
{"id":232480931,"name":"t0pxww3xv","latitude":61,"longitude":63}
{"id":2885243729,"name":"quygl61ov","latitude":8,"longitude":-120}
{"id":1500404955,"name":"td6wdeqy","latitude":-67,"longitude":170}
{"id":1241885001,"name":"bu9mvc","latitude":-51,"longitude":-171}
{"id":92894956,"name":"0287n6","latitude":25,"longitude":-157}
{"id":670421289,"name":"9j62y2oeni","latitude":-23,"longitude":-6}
{"id":2014023021,"name":"xqsx7nhc","latitude":-8,"longitude":-98}
{"id":2638368097,"name":"ues7wiclrr","latitude":80,"longitude":-83}
{"id":3757663041,"name":"v1ajj0","latitude":6,"longitude":84}
{"id":291782230,"name":"dt62q3","latitude":14,"longitude":135}
{"id":3875821406,"name":"8p5coe7","latitude":-23,"longitude":77}
{"id":4044944111,"name":"s8924g","latitude":-67,"longitude":-87}
{"id":919006231,"name":"0t8u4zy","latitude":28,"longitude":-40}
{"id":2465004598,"name":"jhjrj1","latitude":33,"longitude":39}
{"id":3397823155,"name":"q0qi8y","latitude":50,"longitude":-93}
{"id":891163162,"name":"43sntaf","latitude":23,"longitude":42}
{"id":2001744894,"name":"7l0bqfrun","latitude":-82,"longitude":-155}
{"id":3942104653,"name":"0oa7dlquad","latitude":73,"longitude":-177}
{"id":2357325683,"name":"4stzgsp","latitude":83,"longitude":16}
{"id":1012449565,"name":"ecii8i1bb8","latitude":-83,"longitude":-137}
{"id":1836914027,"name":"bosakc2h2x","latitude":-18,"longitude":-2}
{"id":2052511017,"name":"h1gn0e0l","latitude":-12,"longitude":45}
{"id":612473451,"name":"faxsr6nf31","latitude":25,"longitude":-79}
{"id":2057558765,"name":"fd7ouge","latitude":56,"longitude":166}
{"id":2308615026,"name":"srttb3x46h","latitude":-89,"longitude":86}
{"id":3172798763,"name":"52ceja","latitude":-41,"longitude":-50}
{"id":4095234291,"name":"sagb800ro","latitude":-87,"longitude":-32}
{"id":2393589000,"name":"ox7qxg1wl","latitude":89,"longitude":-67}
{"id":80339232,"name":"3qnqgnqrz","latitude":-48,"longitude":-82}
{"id":3273129944,"name":"wyk32ku","latitude":-51,"longitude":-66}
{"id":3422739649,"name":"fpri5p6d","latitude":-78,"longitude":80}
{"id":2918330583,"name":"38ohaezxc4","latitude":24,"longitude":-124}
{"id":2841214006,"name":"vdvx6jrh","latitude":-8,"longitude":106}
{"id":1777865022,"name":"b8s2f4aw1l","latitude":31,"longitude":37}
{"id":321873920,"name":"ept9r4jli","latitude":-2,"longitude":40}
{"id":2432401411,"name":"rj1b1he3","latitude":10,"longitude":138}
{"id":3314720953,"name":"1u41irha5s","latitude":-48,"longitude":144}
{"id":3872760723,"name":"qup4g9n","latitude":88,"longitude":142}
{"id":551248053,"name":"00yualj8d","latitude":46,"longitude":-134}
{"id":409520416,"name":"9twb4vu6br","latitude":-80,"longitude":-55}
{"id":669683407,"name":"avsh3rp","latitude":-2,"longitude":-30}
{"id":1190206440,"name":"k9elmtod9e","latitude":-16,"longitude":-162}
{"id":2552660920,"name":"87hdm7","latitude":83,"longitude":3}
{"id":3310475562,"name":"phdo5nsk40","latitude":52,"longitude":-116}
{"id":2756332557,"name":"oxpeglek","latitude":14,"longitude":62}
{"id":3818161639,"name":"za4v9x","latitude":-72,"longitude":-99}
{"id":2610176385,"name":"zthg2d1xzy","latitude":89,"longitude":-14}
{"id":3532592812,"name":"ev40vdy4tx","latitude":-38,"longitude":-18}
{"id":2354600430,"name":"ft9iwliyu","latitude":73,"longitude":-108}
{"id":3981540128,"name":"yjwxl8bdf8","latitude":52,"longitude":-87}
{"id":2643634696,"name":"9xd206m","latitude":89,"longitude":89}
{"id":353182263,"name":"9qx8d0wlk","latitude":75,"longitude":-123}
{"id":3977072963,"name":"uavd9v5tr","latitude":90,"longitude":-138}
{"id":3064230,"name":"xoaykea","latitude":67,"longitude":146}
{"id":329419801,"name":"ziexkit","latitude":-28,"longitude":-7}
{"id":3096381640,"name":"6rue04","latitude":-12,"longitude":30}
{"id":3225609676,"name":"9xnfixn","latitude":-17,"longitude":26}
{"id":4161029021,"name":"77hvjurvw","latitude":-41,"longitude":130}
{"id":4288448576,"name":"sj3atgw","latitude":-84,"longitude":94}
{"id":852879942,"name":"8ed8ndmg","latitude":78,"longitude":18}
{"id":3432877873,"name":"5oji2fr61","latitude":-60,"longitude":15}
{"id":2385778424,"name":"knbyqyhb","latitude":59,"longitude":-15}
{"id":2971628720,"name":"8xcmsi73","latitude":6,"longitude":-16}
{"id":1354736843,"name":"a77oy8de8","latitude":45,"longitude":-63}
{"id":2450975248,"name":"dw5cgskw","latitude":-65,"longitude":62}
{"id":520830408,"name":"cix6yc","latitude":-53,"longitude":-142}
{"id":2571369689,"name":"9xxwsdsps","latitude":0,"longitude":4}
{"id":1632712772,"name":"rl666ye","latitude":-45,"longitude":103}
{"id":2193053286,"name":"omd55r","latitude":-9,"longitude":117}
{"id":1729134515,"name":"aku97q4bao","latitude":63,"longitude":91}
{"id":1872598903,"name":"67zoyd6","latitude":2,"longitude":153}
{"id":2543707139,"name":"f78ro2p8ue","latitude":76,"longitude":89}
{"id":1308575303,"name":"613d7gq","latitude":-3,"longitude":-80}
{"id":517124578,"name":"lryw9o3iv2","latitude":-60,"longitude":-172}
{"id":3221563826,"name":"6yn80d","latitude":46,"longitude":-121}
{"id":1129753762,"name":"riobkt059q","latitude":59,"longitude":-47}
{"id":2064648947,"name":"kcrs8bgcmy","latitude":-4,"longitude":133}
{"id":216151457,"name":"7b8itb9y","latitude":36,"longitude":-138}
{"id":3357350796,"name":"rwdg756","latitude":51,"longitude":24}
{"id":2775496452,"name":"4q0rfh","latitude":22,"longitude":-30}
{"id":316300659,"name":"k721hj1dow","latitude":-88,"longitude":154}
{"id":2595281544,"name":"a96zh3ejo","latitude":81,"longitude":125}
{"id":601061841,"name":"g2lmcxc4","latitude":-29,"longitude":-61}
{"id":2489815974,"name":"emno9xksq","latitude":-57,"longitude":-1}
{"id":3909275658,"name":"prtqq8ssl","latitude":-26,"longitude":-89}
{"id":3922696552,"name":"ttrff58sp5","latitude":-55,"longitude":-152}
{"id":2446277902,"name":"wrdjaj7","latitude":-64,"longitude":20}
{"id":1400161340,"name":"x6lort","latitude":19,"longitude":-89}
{"id":3661337053,"name":"p491qa5","latitude":63,"longitude":-168}
{"id":1823792965,"name":"j0isbwemgp","latitude":75,"longitude":57}
{"id":584866436,"name":"5x2x17o","latitude":43,"longitude":63}
{"id":3708452775,"name":"garvund","latitude":-4,"longitude":44}
{"id":734212872,"name":"zh1mam","latitude":85,"longitude":166}
{"id":4224656234,"name":"xu10ksa","latitude":43,"longitude":-128}
{"id":3867107018,"name":"ugc2o7ubel","latitude":5,"longitude":0}
{"id":1880775156,"name":"2sso6m","latitude":-3,"longitude":72}
{"id":3894979745,"name":"el1qr62","latitude":55,"longitude":125}
{"id":390405068,"name":"qxxh3vlbw","latitude":90,"longitude":-18}
{"id":2433604317,"name":"zi37jd","latitude":-34,"longitude":-72}
{"id":2573699636,"name":"u85byu","latitude":-57,"longitude":-102}
{"id":937092843,"name":"mrw8x1or4","latitude":-4,"longitude":163}
{"id":3598333584,"name":"0v0h0208","latitude":36,"longitude":-25}
{"id":3996946625,"name":"xd8ytv","latitude":48,"longitude":-36}
{"id":782106057,"name":"0nempbindw","latitude":-61,"longitude":-131}
{"id":1239206148,"name":"wno29r","latitude":-81,"longitude":59}
{"id":917612923,"name":"vqj1rkzlq","latitude":-54,"longitude":-129}
{"id":4208056443,"name":"r610d1v","latitude":-13,"longitude":163}
{"id":3407950337,"name":"1lvqc7","latitude":-52,"longitude":162}
{"id":4239215042,"name":"5maexzfxb","latitude":-46,"longitude":-87}
{"id":2253439411,"name":"yux036muqy","latitude":-32,"longitude":-19}
{"id":273462032,"name":"gtpx2t","latitude":-81,"longitude":154}
{"id":252519355,"name":"tswrse","latitude":-7,"longitude":45}
{"id":1885356996,"name":"5g2lwag2","latitude":-2,"longitude":-40}
{"id":3319564896,"name":"tcgpeskbhq","latitude":-4,"longitude":18}
{"id":3557084783,"name":"5feaok","latitude":20,"longitude":38}
{"id":2993856337,"name":"en0o4mu42","latitude":-46,"longitude":110}
{"id":44806463,"name":"36g3ib592c","latitude":15,"longitude":-96}
{"id":3116380597,"name":"wbfri5fdc6","latitude":48,"longitude":-20}
{"id":802092287,"name":"lvnzgzl57","latitude":-19,"longitude":70}
{"id":1744997116,"name":"tlugmg","latitude":-31,"longitude":-175}
{"id":3764915463,"name":"oi2mhmlz","latitude":-4,"longitude":-156}
{"id":4155319452,"name":"wdp8wvxl","latitude":15,"longitude":10}
{"id":3873195316,"name":"kclkbr","latitude":-70,"longitude":-176}
{"id":3590700104,"name":"j6wx9u9t","latitude":-82,"longitude":-4}
{"id":3376688355,"name":"fjqw0kmgic","latitude":-69,"longitude":-145}
{"id":2096686407,"name":"uuowzxi0","latitude":64,"longitude":-56}
{"id":2863669818,"name":"rpmxbcz","latitude":42,"longitude":154}
{"id":3264910885,"name":"ztzkcy5dy","latitude":11,"longitude":69}
{"id":3947555313,"name":"ey6l37","latitude":-30,"longitude":-149}
{"id":4164135818,"name":"3sugg4ree","latitude":-23,"longitude":-30}
{"id":2900016529,"name":"xkk9ucgyd","latitude":65,"longitude":143}
{"id":85500606,"name":"nob0o9pskb","latitude":-42,"longitude":-9}
{"id":2317345116,"name":"3ba6dfj","latitude":-35,"longitude":32}
{"id":304207125,"name":"qfm4lo8","latitude":41,"longitude":50}
{"id":3982415249,"name":"inwt9k6hrz","latitude":37,"longitude":92}
{"id":3716623597,"name":"41wxcuv7d1","latitude":-40,"longitude":39}
{"id":3141285041,"name":"nomu25g","latitude":29,"longitude":-58}
{"id":102736440,"name":"aa3g1vs","latitude":-40,"longitude":144}
{"id":1605869194,"name":"48c7n3u5oq","latitude":-28,"longitude":-96}
{"id":955689543,"name":"d04qde","latitude":-72,"longitude":39}
{"id":3734150018,"name":"hvasy3zz","latitude":67,"longitude":-11}
{"id":2573133185,"name":"faqlqys","latitude":39,"longitude":86}
{"id":2370462691,"name":"pljixevdzs","latitude":-76,"longitude":-165}
{"id":143029916,"name":"286n0o6","latitude":-7,"longitude":97}
{"id":2238623360,"name":"ec7svl","latitude":-31,"longitude":-10}
{"id":4284885301,"name":"8puc70s8m","latitude":-37,"longitude":91}
{"id":3272271488,"name":"yzzq6zg","latitude":20,"longitude":-31}
{"id":1277104779,"name":"18mdwn3ub","latitude":64,"longitude":70}
{"id":469852690,"name":"lh9jnkh10","latitude":52,"longitude":-167}
{"id":99691106,"name":"5jt6hsxd9c","latitude":56,"longitude":-130}
{"id":2447735570,"name":"o1xg1qmd","latitude":-46,"longitude":-176}
{"id":320372759,"name":"0cajh4rzey","latitude":14,"longitude":81}
{"id":2652364838,"name":"xsd9ipr57","latitude":-21,"longitude":110}
{"id":1675317567,"name":"rd3jvvqr6","latitude":51,"longitude":-85}
{"id":3564092232,"name":"rqucpry7","latitude":58,"longitude":34}
{"id":2836068580,"name":"8voiyt6q4s","latitude":20,"longitude":141}
{"id":2854684973,"name":"xrj0m21pw","latitude":-89,"longitude":0}
{"id":3230680091,"name":"mdb17h","latitude":45,"longitude":-53}
{"id":3773087757,"name":"ctf572s3t8","latitude":-21,"longitude":-130}
{"id":621460352,"name":"bute6ogdn7","latitude":-44,"longitude":161}
{"id":870519285,"name":"llupwt","latitude":43,"longitude":-111}
{"id":2897273253,"name":"vcmyjc","latitude":34,"longitude":97}
{"id":3509721636,"name":"6qdwu6ift","latitude":-23,"longitude":-124}
{"id":1856126256,"name":"nmzqxs1k","latitude":-72,"longitude":158}
{"id":3548490681,"name":"5nsnfgpaax","latitude":18,"longitude":93}
{"id":1916490646,"name":"stx0381p","latitude":12,"longitude":-48}
{"id":4229546606,"name":"u6kp6tm","latitude":-38,"longitude":-45}
{"id":284702908,"name":"1xsunu3ov","latitude":-14,"longitude":-136}
{"id":3087274900,"name":"54t87z","latitude":-45,"longitude":3}
{"id":938893234,"name":"nlgd9v2","latitude":-69,"longitude":96}
{"id":2347768609,"name":"r35lb8z","latitude":-68,"longitude":0}
{"id":3439837645,"name":"zbmfxfrf","latitude":-65,"longitude":-113}
{"id":1166736923,"name":"zh0gdl","latitude":70,"longitude":21}
{"id":3778360512,"name":"61sabf7","latitude":-12,"longitude":57}
{"id":2326489840,"name":"snt9roh","latitude":-47,"longitude":-88}
{"id":427547198,"name":"6xdeyd","latitude":26,"longitude":117}
{"id":2918056092,"name":"ovje1vmi","latitude":79,"longitude":-139}
{"id":2898727834,"name":"jdyd7clt7","latitude":42,"longitude":14}
{"id":2094363917,"name":"4b0yc2fmhi","latitude":69,"longitude":105}
{"id":2068692688,"name":"x0icp02y","latitude":-60,"longitude":149}
{"id":1760231968,"name":"6jn6e4","latitude":-18,"longitude":-167}
{"id":1472225384,"name":"36xlczd5f","latitude":59,"longitude":-115}
{"id":3661238173,"name":"yyjotryydn","latitude":-86,"longitude":-156}
{"id":2488073385,"name":"ot2b38rz","latitude":-23,"longitude":-1}
{"id":2295697935,"name":"kolq91","latitude":30,"longitude":86}
{"id":1194279316,"name":"c5ku91k","latitude":38,"longitude":-42}
{"id":3304827287,"name":"12gyvo","latitude":-68,"longitude":-65}
{"id":1676708195,"name":"95jmu7g","latitude":76,"longitude":-162}
{"id":1530762266,"name":"sotswb5zov","latitude":61,"longitude":155}
{"id":1413087466,"name":"wom3hixv7","latitude":-44,"longitude":-146}
{"id":300739283,"name":"e5xfty4h","latitude":-9,"longitude":-1}
{"id":3688561445,"name":"p7r5cu7m","latitude":-65,"longitude":-63}
{"id":3966808245,"name":"69ysrywhu","latitude":-87,"longitude":-55}
{"id":3458113689,"name":"g701s0jsj2","latitude":-8,"longitude":80}
{"id":3773662942,"name":"hqwipyd","latitude":9,"longitude":-41}
{"id":3577950081,"name":"7firz0","latitude":73,"longitude":-145}
{"id":2135652682,"name":"fz2u8cle","latitude":-76,"longitude":-99}
{"id":598496125,"name":"6n4wiwvwh","latitude":-24,"longitude":-129}
{"id":3775519930,"name":"0jfkymhyrf","latitude":-55,"longitude":172}
{"id":4081793582,"name":"5m7gikdhg","latitude":58,"longitude":-95}
{"id":2465827502,"name":"tlalwztz63","latitude":-27,"longitude":67}
{"id":4115509671,"name":"rbymcb8","latitude":77,"longitude":118}
{"id":3813741590,"name":"poz8eaa1b","latitude":32,"longitude":124}
{"id":1429128610,"name":"jqooux","latitude":-1,"longitude":-73}
{"id":1633447999,"name":"e9kk38no1","latitude":57,"longitude":125}
{"id":1269645118,"name":"o362tq","latitude":67,"longitude":89}
{"id":4073626727,"name":"gvf1gkf","latitude":-34,"longitude":117}
{"id":813000021,"name":"pdi5gegj","latitude":-77,"longitude":-110}
{"id":1042907252,"name":"uym8htkh","latitude":70,"longitude":-39}
{"id":3201232715,"name":"du9u0pxw","latitude":24,"longitude":-104}
{"id":957902350,"name":"a91tiue9e2","latitude":-5,"longitude":23}
{"id":4090087381,"name":"6lb7s4qi","latitude":56,"longitude":-4}
{"id":615933275,"name":"q1m0cy4","latitude":-5,"longitude":-121}
{"id":1247767368,"name":"i0rrqb","latitude":-3,"longitude":58}
{"id":2612470094,"name":"k8w1qgq7","latitude":-51,"longitude":-8}
{"id":346215749,"name":"wvecyun","latitude":-29,"longitude":-54}
{"id":424335947,"name":"urho3p","latitude":10,"longitude":59}
{"id":2451512208,"name":"gnvlphxvu9","latitude":90,"longitude":86}
{"id":1288209344,"name":"8z3zm1","latitude":16,"longitude":46}
{"id":3187910185,"name":"aykju61c","latitude":-63,"longitude":-87}
{"id":64307044,"name":"tv02p99kw","latitude":82,"longitude":83}
{"id":3643330256,"name":"kaso32s","latitude":-11,"longitude":15}
{"id":1048287974,"name":"mypmiu9uz","latitude":46,"longitude":-176}
{"id":3012772602,"name":"jrhd4iodnr","latitude":74,"longitude":-2}
{"id":2359990107,"name":"wrthxamc","latitude":-25,"longitude":77}
{"id":2641548116,"name":"leftml","latitude":30,"longitude":-162}
{"id":76451114,"name":"vunj06b","latitude":38,"longitude":38}
{"id":403281273,"name":"mcadx4","latitude":15,"longitude":38}
{"id":2928073697,"name":"wkxn4gn1y","latitude":27,"longitude":-111}
{"id":1359795361,"name":"oxtb8a1w","latitude":-70,"longitude":-57}
{"id":1222290562,"name":"xry9l811q","latitude":52,"longitude":-74}
{"id":3684907499,"name":"7up67zo","latitude":-86,"longitude":86}
{"id":1297675109,"name":"w548yyjp6a","latitude":45,"longitude":-3}
{"id":4215063756,"name":"6ppda2lyw0","latitude":26,"longitude":-36}
{"id":4097527868,"name":"0ne8zkzj","latitude":-55,"longitude":96}
{"id":1189764481,"name":"eo3o4c","latitude":-50,"longitude":-26}
{"id":1434560531,"name":"m3midxv","latitude":19,"longitude":-130}
{"id":3193027771,"name":"wtkgpl0j95","latitude":27,"longitude":81}
{"id":3713056166,"name":"8grg2qfo","latitude":-13,"longitude":-45}
{"id":2230878484,"name":"dx6arbun0","latitude":61,"longitude":-5}
{"id":520109477,"name":"35ql6u7n6s","latitude":1,"longitude":-83}
{"id":2962506364,"name":"elztbnv","latitude":73,"longitude":-75}
{"id":845789561,"name":"8a8wvtvw0b","latitude":62,"longitude":-165}
{"id":644843762,"name":"r43zulp5","latitude":53,"longitude":66}
{"id":3067413899,"name":"mbakj1iw19","latitude":-47,"longitude":137}
{"id":1380718681,"name":"kbq493z1i","latitude":-18,"longitude":-143}
{"id":758370255,"name":"wp1klv","latitude":20,"longitude":75}
{"id":3641405035,"name":"12ncz3u","latitude":-14,"longitude":-52}
{"id":2759629358,"name":"1v6uqjxiqt","latitude":63,"longitude":103}
{"id":2479400779,"name":"n72c6bv","latitude":-7,"longitude":44}
{"id":1848270566,"name":"qcidbmp9l4","latitude":-15,"longitude":-135}
{"id":418476722,"name":"u0trq7","latitude":31,"longitude":-170}
{"id":1862487520,"name":"xy86i24","latitude":29,"longitude":134}
{"id":4105809351,"name":"u1hn3u3q","latitude":-65,"longitude":60}
{"id":1478382882,"name":"emzgdi","latitude":-87,"longitude":146}
{"id":392152037,"name":"amjadod2nd","latitude":30,"longitude":-70}
{"id":610190484,"name":"dwuq21","latitude":44,"longitude":150}
{"id":2898349227,"name":"xdcgtah3d","latitude":83,"longitude":-58}
{"id":3134152435,"name":"11kjxp","latitude":72,"longitude":-113}
{"id":1444340359,"name":"ppvq4ritr7","latitude":-53,"longitude":53}
{"id":1509346906,"name":"r02647d9","latitude":-89,"longitude":-158}
{"id":3606154680,"name":"q5wk460fd","latitude":-76,"longitude":84}
{"id":1289039307,"name":"1fqeeoqqr","latitude":-10,"longitude":-38}
{"id":1365594219,"name":"h4656xoj","latitude":64,"longitude":12}
{"id":1745544508,"name":"2z1npo6","latitude":80,"longitude":20}
{"id":2512802853,"name":"4mw7w0","latitude":75,"longitude":-100}
{"id":3634190040,"name":"qujy9hyj","latitude":88,"longitude":168}
{"id":1830920060,"name":"2xjgp60","latitude":48,"longitude":153}
{"id":1831515337,"name":"y4ti1o6vw","latitude":73,"longitude":115}
{"id":4232689050,"name":"92un5rkijo","latitude":59,"longitude":-170}
{"id":3645530543,"name":"vigeomij","latitude":-24,"longitude":-167}
{"id":4023865292,"name":"mrscfsmdg","latitude":-84,"longitude":-138}
{"id":1721244205,"name":"2vgneby","latitude":43,"longitude":23}
{"id":3510519731,"name":"9peobm13u","latitude":-34,"longitude":-30}
{"id":3728331587,"name":"qrqtlpi","latitude":9,"longitude":-51}
{"id":754120362,"name":"ipudg1um6w","latitude":35,"longitude":-82}
{"id":2981581788,"name":"zklest","latitude":-65,"longitude":-87}
{"id":4030724800,"name":"tsm84a","latitude":1,"longitude":-170}
{"id":3842944696,"name":"sz1hxt2n8o","latitude":-53,"longitude":156}
{"id":3942397324,"name":"4knengjjc","latitude":-73,"longitude":93}
{"id":1276333852,"name":"ttbaw7s17","latitude":24,"longitude":-135}
{"id":2074571385,"name":"hez6sc58gj","latitude":-48,"longitude":-121}
{"id":187105223,"name":"80sdk8sp75","latitude":12,"longitude":145}
{"id":3182014815,"name":"7ffloopf","latitude":-37,"longitude":-103}
{"id":343480729,"name":"wdkieir53t","latitude":10,"longitude":95}
{"id":1807572033,"name":"h7w0co0","latitude":-22,"longitude":-16}
{"id":3390378887,"name":"kpjtpt28","latitude":-15,"longitude":35}
{"id":689227144,"name":"ifmt8r0e4k","latitude":-13,"longitude":-144}
{"id":2350581683,"name":"cleekt0dk0","latitude":-25,"longitude":-70}
{"id":2599595462,"name":"grh4yr8ya","latitude":-70,"longitude":-35}
{"id":3681362907,"name":"q1m69j0n","latitude":71,"longitude":-167}
{"id":1976585988,"name":"9e806l23g","latitude":38,"longitude":-83}
{"id":4270165727,"name":"n3f4rya3xb","latitude":27,"longitude":122}
{"id":4025806711,"name":"oa7a1dyjs","latitude":-64,"longitude":-132}
{"id":3628126738,"name":"lmk8e9czo0","latitude":-79,"longitude":69}
{"id":575177397,"name":"1r9hf0u21","latitude":-28,"longitude":-156}
{"id":83868847,"name":"nmgpqr","latitude":71,"longitude":-5}
{"id":3746415413,"name":"634kf55bv","latitude":37,"longitude":149}
{"id":3086134736,"name":"wlop79k8bb","latitude":8,"longitude":-82}
{"id":420735852,"name":"yi9u7w","latitude":-33,"longitude":-42}
{"id":2473676612,"name":"etnwksin","latitude":62,"longitude":-81}
{"id":1302779668,"name":"0nqzvxwk","latitude":0,"longitude":175}
{"id":449516897,"name":"b2te2cqqbx","latitude":-33,"longitude":48}
{"id":3539281732,"name":"8mqdvpi1q","latitude":-83,"longitude":102}
{"id":3523225728,"name":"5h320lgmph","latitude":87,"longitude":126}
{"id":1482853544,"name":"3504g0kt","latitude":32,"longitude":-112}
{"id":3851178819,"name":"onaizub8f","latitude":60,"longitude":-150}
{"id":3649438174,"name":"58s39j","latitude":15,"longitude":105}
{"id":3898891341,"name":"7ojey6","latitude":-12,"longitude":-60}
{"id":2801080148,"name":"1fetnfw","latitude":16,"longitude":54}
{"id":1173668187,"name":"livk11fy1","latitude":-63,"longitude":-3}
{"id":2703442179,"name":"rb3xrdhhqf","latitude":45,"longitude":178}
{"id":233798546,"name":"7c6v83fmyf","latitude":21,"longitude":-68}
{"id":2931431491,"name":"sm5o8qbs","latitude":-31,"longitude":-53}
{"id":453431783,"name":"3ajtjhn","latitude":-60,"longitude":-60}
{"id":2303205757,"name":"6ultue","latitude":37,"longitude":-177}
{"id":4048061723,"name":"ok2xy27","latitude":-35,"longitude":124}
{"id":3281608628,"name":"z49phvtp","latitude":-19,"longitude":-26}
{"id":1358069044,"name":"aecbw7x","latitude":-19,"longitude":130}
{"id":1463196810,"name":"j4mx052m","latitude":31,"longitude":-18}
{"id":1138169132,"name":"oqj8xoo","latitude":-31,"longitude":36}
{"id":2231108624,"name":"l93jhlbkm","latitude":-43,"longitude":-54}
{"id":3785860327,"name":"4g484c207","latitude":-58,"longitude":169}
{"id":1822999766,"name":"mgxd70","latitude":42,"longitude":-74}
{"id":2919336461,"name":"cyz6b3z","latitude":-79,"longitude":-13}
{"id":3671229834,"name":"tdy5r00pi","latitude":-46,"longitude":-120}
{"id":2715410550,"name":"b9gyruqau","latitude":21,"longitude":-10}
{"id":2923023531,"name":"hv1x5a32","latitude":-77,"longitude":132}
{"id":3944360278,"name":"g5sd342ob0","latitude":-33,"longitude":-87}
{"id":240380250,"name":"hyh8y69ipe","latitude":72,"longitude":155}
{"id":1091731357,"name":"p9wp5hh","latitude":-67,"longitude":-88}
{"id":2827277676,"name":"1g2ls86ypv","latitude":63,"longitude":6}
{"id":3162694887,"name":"3seegyx","latitude":12,"longitude":70}
{"id":3611332788,"name":"eta5jgo","latitude":16,"longitude":-28}
{"id":1520978088,"name":"76wpdkpf","latitude":85,"longitude":-5}
{"id":3305272864,"name":"7713b6y6g2","latitude":33,"longitude":83}
{"id":1596380755,"name":"wifz3a","latitude":-17,"longitude":-56}
{"id":3045325726,"name":"fbdylukid","latitude":85,"longitude":-29}
{"id":88629785,"name":"0x1psudv","latitude":84,"longitude":86}
{"id":173012713,"name":"aoxrf6sfc","latitude":58,"longitude":50}
{"id":1627204407,"name":"n9eldb3m7","latitude":-69,"longitude":96}
{"id":494915766,"name":"he8jjbjhqo","latitude":-86,"longitude":43}
{"id":1188237003,"name":"4erh0nr9","latitude":-40,"longitude":-115}
{"id":2292837361,"name":"5gz3lb","latitude":-1,"longitude":99}
{"id":1632445399,"name":"dq12r6ci","latitude":-88,"longitude":88}
{"id":3140613990,"name":"g0f8p1","latitude":89,"longitude":-27}
{"id":2984777234,"name":"5gkug1u59","latitude":-66,"longitude":119}
{"id":1900641050,"name":"em045h","latitude":45,"longitude":109}
{"id":4285262562,"name":"ydylmf8b","latitude":-48,"longitude":96}
{"id":2147912349,"name":"87qjdbg","latitude":86,"longitude":31}
{"id":2582164504,"name":"akg4kwt5gs","latitude":26,"longitude":75}
{"id":173828115,"name":"bpqz0hlez","latitude":13,"longitude":83}
{"id":2151599163,"name":"mkql2vr","latitude":-88,"longitude":-178}
{"id":4007117352,"name":"7op69irs","latitude":-63,"longitude":1}
{"id":3115974749,"name":"6qxfi3g","latitude":38,"longitude":5}
{"id":2767046096,"name":"glwz02s4ca","latitude":46,"longitude":2}
{"id":2350164226,"name":"qktb0hp2","latitude":6,"longitude":50}
{"id":1602362363,"name":"0p8mpoo","latitude":28,"longitude":-40}
{"id":1014371618,"name":"xsf8nk","latitude":-55,"longitude":44}
{"id":3776130891,"name":"hejt4h5try","latitude":-5,"longitude":34}
{"id":1119044446,"name":"8cc48nah","latitude":-20,"longitude":-94}
{"id":3259652756,"name":"c7pyea","latitude":-78,"longitude":113}
{"id":156588132,"name":"jpqnq2piv2","latitude":-23,"longitude":118}
{"id":857464294,"name":"to0ein692e","latitude":64,"longitude":173}
{"id":60690169,"name":"d21aa2g","latitude":-70,"longitude":68}
{"id":1824107457,"name":"cu4tlg80qx","latitude":-70,"longitude":-19}
{"id":1929508274,"name":"x9z1i2g","latitude":7,"longitude":173}
{"id":3767736810,"name":"sr33p4","latitude":53,"longitude":48}
{"id":4206604183,"name":"7wo3gpvn","latitude":63,"longitude":118}
{"id":1796597670,"name":"tzyt7z","latitude":31,"longitude":-73}
{"id":1951007224,"name":"aqi6if6ab","latitude":-77,"longitude":67}
{"id":785496694,"name":"5l1dnis9ay","latitude":-56,"longitude":92}
{"id":3438657123,"name":"h2n480zp5","latitude":-84,"longitude":-135}
{"id":4182352085,"name":"oi9umlby","latitude":70,"longitude":174}
{"id":2670544386,"name":"j9dpsczq","latitude":-47,"longitude":-146}
{"id":1878849489,"name":"soem5l","latitude":-70,"longitude":-105}
{"id":2533985121,"name":"uslchkic1","latitude":-2,"longitude":89}
{"id":1936038263,"name":"v3pz6jsc","latitude":0,"longitude":14}
{"id":3434603253,"name":"pq7um9s","latitude":73,"longitude":-42}
{"id":3446406711,"name":"dxtcou","latitude":77,"longitude":-161}
{"id":2027370387,"name":"tsbx9gr","latitude":8,"longitude":-134}
{"id":4071986107,"name":"8sjttb","latitude":-18,"longitude":-65}
{"id":2120449952,"name":"01ljo4rau","latitude":-78,"longitude":-53}
{"id":530535082,"name":"3mjx71j4p2","latitude":13,"longitude":-94}
{"id":1332124190,"name":"3ilv0u8iuz","latitude":-82,"longitude":-7}
{"id":596342466,"name":"7ambqx1lph","latitude":-52,"longitude":34}
{"id":2884847312,"name":"58nhzdl","latitude":59,"longitude":-150}
{"id":3913836784,"name":"mklls2f6xo","latitude":-15,"longitude":31}
{"id":31811310,"name":"70snodru","latitude":26,"longitude":-4}
{"id":1870531114,"name":"7xt8gbpndb","latitude":35,"longitude":-31}
{"id":2096252821,"name":"e7yq9qwe7o","latitude":-84,"longitude":165}
{"id":738955041,"name":"lxv3eo","latitude":-78,"longitude":-52}
{"id":3218817007,"name":"6hmd0nm","latitude":64,"longitude":-27}
{"id":655258263,"name":"ux2r9wxdy","latitude":49,"longitude":179}
{"id":1658362030,"name":"tzo9jyispz","latitude":30,"longitude":-165}
{"id":701205584,"name":"v4tt88f8","latitude":29,"longitude":-88}
{"id":1627416227,"name":"pp1mk9","latitude":65,"longitude":-151}
{"id":3707506337,"name":"gem9we","latitude":55,"longitude":0}
{"id":1716904988,"name":"0jpxr6c6o","latitude":-38,"longitude":-129}
{"id":778764587,"name":"g6g0hw","latitude":-62,"longitude":120}
{"id":436716099,"name":"irelm8x9e","latitude":-76,"longitude":133}
{"id":3852434154,"name":"o8aeta0d","latitude":-67,"longitude":158}
{"id":75774175,"name":"aadtszmj4c","latitude":0,"longitude":106}
{"id":1427799783,"name":"wz0f3mu","latitude":-50,"longitude":23}
{"id":3197517868,"name":"8mfpop3","latitude":-56,"longitude":-98}
{"id":134590364,"name":"jgmw3s6","latitude":24,"longitude":139}
{"id":2128511944,"name":"qtcjy8ghe","latitude":31,"longitude":88}
{"id":3380141654,"name":"1lnxoehv9","latitude":53,"longitude":18}
{"id":259399024,"name":"x731t2p","latitude":0,"longitude":122}
{"id":1306494137,"name":"wh80q1w","latitude":36,"longitude":180}
{"id":1918747478,"name":"8est23","latitude":-35,"longitude":-152}
{"id":1374670776,"name":"r2go05","latitude":68,"longitude":-105}
{"id":717396503,"name":"xnyv60","latitude":54,"longitude":76}
{"id":235922697,"name":"x9uut9p8w","latitude":-64,"longitude":158}
{"id":50352682,"name":"3uh6x2j","latitude":-2,"longitude":-135}
{"id":2337444727,"name":"szzsmkh2","latitude":68,"longitude":93}
{"id":2819041204,"name":"74i0pjqc","latitude":4,"longitude":-26}
{"id":3949777994,"name":"devvtbl","latitude":-46,"longitude":-101}
{"id":2441341906,"name":"x07s3ukx9","latitude":-5,"longitude":80}
{"id":1827045228,"name":"0jecblyzi","latitude":61,"longitude":-29}
{"id":1851117297,"name":"sxewb46wu","latitude":-84,"longitude":82}
{"id":2133110617,"name":"sxa7m93cj","latitude":-72,"longitude":37}
{"id":1217434172,"name":"kwarhgo0p4","latitude":-71,"longitude":-37}
{"id":1235744719,"name":"kb7fs3vh1","latitude":74,"longitude":16}
{"id":659487196,"name":"m3i3g63e","latitude":-41,"longitude":-168}
{"id":147682838,"name":"bq75ve4j0","latitude":66,"longitude":149}
{"id":1764842268,"name":"sly43i7g","latitude":-29,"longitude":-24}
{"id":2687154979,"name":"7ptd6x18pj","latitude":11,"longitude":64}
{"id":4020118048,"name":"14588z","latitude":-31,"longitude":-127}
{"id":1082994922,"name":"x5s154z9c","latitude":79,"longitude":175}
{"id":4164832877,"name":"ndnlbye","latitude":7,"longitude":-173}
{"id":849443388,"name":"rirblk6068","latitude":-50,"longitude":-136}
{"id":4202229812,"name":"4k2jd3up","latitude":-69,"longitude":-96}
{"id":907296808,"name":"v31sseia9a","latitude":40,"longitude":-128}
{"id":1698281357,"name":"8wnd1fxf","latitude":-43,"longitude":-30}
{"id":3437829963,"name":"33ocgl5h","latitude":78,"longitude":-80}
{"id":3661165464,"name":"saandgil","latitude":-26,"longitude":42}
{"id":2686632900,"name":"x44yawaqxt","latitude":-53,"longitude":-117}
{"id":2813986841,"name":"7ywzsrmt","latitude":-40,"longitude":1}
{"id":833932627,"name":"mefc5hsv6","latitude":-78,"longitude":-22}
{"id":875095105,"name":"55jb6zz1p","latitude":-40,"longitude":173}
{"id":3862847513,"name":"vh50pbjaz","latitude":-51,"longitude":-107}
{"id":3256133418,"name":"l8em75sb08","latitude":47,"longitude":-65}
{"id":2713486224,"name":"1i4xr2","latitude":36,"longitude":-165}
{"id":2367401063,"name":"3g7obfo","latitude":-58,"longitude":-69}
{"id":1802316363,"name":"ix61ckp8m","latitude":37,"longitude":-94}
{"id":2964965625,"name":"ff75kzfpg8","latitude":-66,"longitude":34}
{"id":1759479922,"name":"plu3je5y","latitude":-90,"longitude":108}
{"id":1854220696,"name":"b955tfkpa","latitude":8,"longitude":-153}
{"id":1110487430,"name":"xxdmfo","latitude":-47,"longitude":-128}
{"id":2098975694,"name":"1chcrwcbf","latitude":76,"longitude":-26}
{"id":4157624897,"name":"4nga0rynb","latitude":22,"longitude":53}
{"id":1578257774,"name":"61znm2tk1x","latitude":-10,"longitude":-33}
{"id":3598240405,"name":"iwgb6j","latitude":1,"longitude":-142}
{"id":4051696751,"name":"p1c0nn","latitude":38,"longitude":-77}
{"id":1488839488,"name":"jy0xqvyh","latitude":-31,"longitude":177}
{"id":2815448109,"name":"15x62x9x0","latitude":-49,"longitude":-136}
{"id":2691750230,"name":"4so7zln","latitude":45,"longitude":-135}
{"id":763345255,"name":"d8ggrl","latitude":-11,"longitude":62}
{"id":2260043163,"name":"91lhq5","latitude":25,"longitude":149}
{"id":3868816719,"name":"vcey52m","latitude":-41,"longitude":120}
{"id":3266556540,"name":"0hed485xq","latitude":70,"longitude":-18}
{"id":511622678,"name":"0xaortru","latitude":37,"longitude":143}
{"id":381537112,"name":"wmgjwf4aat","latitude":62,"longitude":-36}
{"id":483200907,"name":"pujogbb1m4","latitude":-86,"longitude":-142}
{"id":891121759,"name":"8axjnqa","latitude":2,"longitude":-23}
{"id":1400477320,"name":"fz2vkiu","latitude":-47,"longitude":60}
{"id":3689602987,"name":"alzwyc1","latitude":12,"longitude":-31}
{"id":1138240254,"name":"dstp770y","latitude":33,"longitude":128}
{"id":1052600658,"name":"e4rj6a","latitude":69,"longitude":-3}
{"id":890511787,"name":"98ca9q","latitude":-50,"longitude":96}
{"id":3286068484,"name":"iskmzn58km","latitude":90,"longitude":55}
{"id":2294462694,"name":"g177q4x","latitude":-15,"longitude":-52}
{"id":1945996722,"name":"eeivhp6","latitude":-46,"longitude":-109}
{"id":1018960757,"name":"owagukta7","latitude":-58,"longitude":-100}
{"id":3765507871,"name":"tfodkf0d3","latitude":-18,"longitude":85}
{"id":3831314157,"name":"739zhi","latitude":20,"longitude":173}
{"id":3077620040,"name":"6y0pcsykz7","latitude":81,"longitude":15}
{"id":1502326688,"name":"7gvnybk","latitude":-17,"longitude":-99}
{"id":4289305682,"name":"qstwvq","latitude":7,"longitude":-141}
{"id":1762557119,"name":"k95c2o69","latitude":16,"longitude":-59}
{"id":1168724808,"name":"tp8uxmx","latitude":-6,"longitude":-60}
{"id":2448013286,"name":"8tzlxv","latitude":53,"longitude":91}
{"id":1004658989,"name":"qiyo2b1","latitude":-87,"longitude":180}
{"id":1403748364,"name":"ssh3co23","latitude":26,"longitude":-117}
{"id":2719858515,"name":"95pntjqdm","latitude":-23,"longitude":28}
{"id":3858444319,"name":"t2m9zwgl","latitude":8,"longitude":-113}
{"id":1138295789,"name":"bz7q3een","latitude":-23,"longitude":-132}
{"id":1929443985,"name":"ysm10s","latitude":22,"longitude":15}
{"id":3558190224,"name":"ga29wdx","latitude":40,"longitude":-151}
{"id":1494928545,"name":"scovkbr","latitude":-34,"longitude":61}
{"id":430555474,"name":"dupw45hk6","latitude":31,"longitude":-132}
{"id":2294988801,"name":"sb5dtn","latitude":33,"longitude":155}
{"id":1768558714,"name":"4ihqb3i1gf","latitude":-82,"longitude":162}
{"id":852102939,"name":"tjbfxw2ro","latitude":20,"longitude":34}
{"id":3131082976,"name":"j12k6l874h","latitude":-18,"longitude":169}
{"id":3873515969,"name":"g81cmaog","latitude":76,"longitude":4}
{"id":2704103362,"name":"wcthhxidk","latitude":-14,"longitude":139}
{"id":971681107,"name":"mnvx3updtm","latitude":-6,"longitude":1}
{"id":863047857,"name":"89e5kthf","latitude":43,"longitude":-100}
{"id":553475342,"name":"ibqgiidi","latitude":-70,"longitude":13}
{"id":2429648036,"name":"rbqfsk","latitude":60,"longitude":-106}
{"id":4094991367,"name":"e2ldxyx","latitude":69,"longitude":139}
{"id":3578333975,"name":"z76ziz8","latitude":33,"longitude":156}
{"id":2425181895,"name":"l4entx","latitude":-3,"longitude":16}
{"id":2457648076,"name":"fkqcurlco","latitude":-8,"longitude":159}
{"id":3821687681,"name":"4x84s1pqz","latitude":-89,"longitude":131}
{"id":2751868290,"name":"bqhmabd","latitude":45,"longitude":-77}
{"id":3261254485,"name":"lygjka","latitude":23,"longitude":91}
{"id":3523411805,"name":"yfe5dfj08","latitude":-83,"longitude":-4}
{"id":3543751602,"name":"ljpsgjy9qk","latitude":7,"longitude":37}
{"id":1239692569,"name":"m8dvkjra","latitude":37,"longitude":-24}
{"id":54102732,"name":"ip9u2jxjs","latitude":-89,"longitude":-67}
{"id":2725674279,"name":"htt4z17m","latitude":-47,"longitude":179}
{"id":1624081429,"name":"7w51ixm2","latitude":-14,"longitude":-8}
{"id":2259269072,"name":"qlidgblliw","latitude":-54,"longitude":158}
{"id":2070217929,"name":"brb3tg19tv","latitude":81,"longitude":162}
{"id":1709637205,"name":"v2nb923ex","latitude":-53,"longitude":72}
{"id":1793157797,"name":"goobwk","latitude":-28,"longitude":-64}
{"id":847985696,"name":"158tfhqlvz","latitude":89,"longitude":-50}
{"id":1215738961,"name":"z6t5azy","latitude":65,"longitude":144}
{"id":890501117,"name":"2tlgfnhzsw","latitude":-43,"longitude":37}
{"id":2072767760,"name":"ka4icul","latitude":67,"longitude":40}
{"id":3670285051,"name":"rasxcrsqf","latitude":-25,"longitude":127}
{"id":1311065167,"name":"pkpje8qq3","latitude":52,"longitude":-80}
{"id":4059512781,"name":"s1fd5t","latitude":46,"longitude":-7}
{"id":4148619030,"name":"w80ixr","latitude":30,"longitude":-26}
{"id":3086346981,"name":"1a9cqi","latitude":-11,"longitude":48}
{"id":2480877014,"name":"iz28krzg5","latitude":-1,"longitude":173}
{"id":2708349511,"name":"psplmf","latitude":-35,"longitude":169}
{"id":2770523787,"name":"e44li8h","latitude":19,"longitude":118}
{"id":1482028508,"name":"9ksvwcj","latitude":1,"longitude":-149}
{"id":1140684032,"name":"flnern2ytr","latitude":62,"longitude":164}
{"id":1006489958,"name":"a7i4cr51","latitude":-1,"longitude":-66}
{"id":1855255004,"name":"uguck8s","latitude":-65,"longitude":-143}
{"id":3944396853,"name":"cgaqs51ut","latitude":-42,"longitude":129}
{"id":2131683653,"name":"80apk6","latitude":-30,"longitude":8}
{"id":3604889987,"name":"c0wzz5nf","latitude":-28,"longitude":166}
{"id":2605189660,"name":"gmh9vy","latitude":-80,"longitude":-17}
{"id":373778989,"name":"r1h2r6","latitude":-74,"longitude":94}
{"id":1217406319,"name":"ry8b7a","latitude":-2,"longitude":-49}
{"id":3086848514,"name":"tv4p0ojp20","latitude":51,"longitude":134}
{"id":833966867,"name":"q21s7v","latitude":33,"longitude":77}
{"id":2720759383,"name":"95c1hv0zss","latitude":-56,"longitude":-105}
{"id":614101406,"name":"yqn7wcz","latitude":10,"longitude":-53}
{"id":1609922727,"name":"jo4extfb","latitude":-55,"longitude":44}
{"id":1316034251,"name":"o296eka","latitude":-34,"longitude":165}
{"id":4154464811,"name":"i00hx4p38","latitude":65,"longitude":-71}
{"id":2758432163,"name":"ooasj7g4p","latitude":-83,"longitude":-51}
{"id":1440508668,"name":"vacfek4","latitude":-54,"longitude":-18}
{"id":3275347591,"name":"cfrumzzmmp","latitude":-30,"longitude":158}
{"id":1269194424,"name":"vk7rcjq","latitude":-39,"longitude":80}
{"id":3284982083,"name":"feeh5o","latitude":-31,"longitude":-35}
{"id":1782602726,"name":"ku0y3eobsc","latitude":-32,"longitude":35}
{"id":1315609813,"name":"2ct3hh","latitude":24,"longitude":-126}
{"id":3772248074,"name":"l91y7cn9","latitude":-82,"longitude":-56}
{"id":513774973,"name":"gxtdj1","latitude":-33,"longitude":57}
{"id":2819677157,"name":"0jutoa","latitude":-70,"longitude":7}
{"id":1060572585,"name":"it5lo76","latitude":66,"longitude":23}
{"id":1863649,"name":"ls74swnti","latitude":-77,"longitude":96}
{"id":265728627,"name":"kahkdg","latitude":-84,"longitude":-145}
{"id":3479529618,"name":"zbjav4","latitude":-24,"longitude":-41}
{"id":634581686,"name":"vou9uqdgws","latitude":12,"longitude":77}
{"id":1178110618,"name":"b7ercdz","latitude":-4,"longitude":-168}
{"id":967987912,"name":"zslwmydn6w","latitude":18,"longitude":61}
{"id":3722330334,"name":"697ixlne86","latitude":-77,"longitude":78}
{"id":3182488732,"name":"upduo5n","latitude":-60,"longitude":-167}
{"id":1350042952,"name":"9x944hr5vc","latitude":-50,"longitude":-126}
{"id":315726977,"name":"eu9550qk","latitude":14,"longitude":-174}
{"id":4042627220,"name":"1ofpi7","latitude":-38,"longitude":-148}
{"id":4259879006,"name":"c3ncyj62yt","latitude":-9,"longitude":-134}
{"id":1909386089,"name":"s6ly0hta2k","latitude":10,"longitude":-1}
{"id":2344823590,"name":"eygt2ea","latitude":-22,"longitude":-158}
{"id":114051863,"name":"kx9qzy","latitude":19,"longitude":15}
{"id":3020943683,"name":"ns71xk","latitude":-13,"longitude":-129}
{"id":1540307780,"name":"977su8j5d","latitude":-17,"longitude":-103}
{"id":3476034309,"name":"orgd7uka","latitude":41,"longitude":-41}
{"id":693379776,"name":"cdd5hz8e","latitude":37,"longitude":39}
{"id":1404771672,"name":"jkl5df2nv","latitude":-54,"longitude":-114}
{"id":3937708579,"name":"i3vsgjq58","latitude":-43,"longitude":-10}
{"id":3466489104,"name":"2ygpxkpmz","latitude":-74,"longitude":154}
{"id":1612906959,"name":"i68b2r4qr4","latitude":-88,"longitude":-7}
{"id":177491193,"name":"cv1kjwh","latitude":-31,"longitude":129}
{"id":1388070634,"name":"cmzv1mde","latitude":-27,"longitude":-13}
{"id":2151791491,"name":"km64ov0pg7","latitude":-17,"longitude":142}
{"id":3820336474,"name":"5o65te","latitude":-66,"longitude":-72}
{"id":4200844665,"name":"5mcfby1","latitude":14,"longitude":-170}
{"id":2713965080,"name":"gzxsgf4kv","latitude":-80,"longitude":84}
{"id":3349624015,"name":"d4oxv2c","latitude":34,"longitude":158}
{"id":2359728088,"name":"wzojdanp","latitude":-29,"longitude":-107}
{"id":2719689749,"name":"dkvt57ogj7","latitude":-76,"longitude":-74}
{"id":3272740571,"name":"a2zoljuw9m","latitude":81,"longitude":-68}
{"id":836315954,"name":"7btlygl","latitude":-33,"longitude":49}
{"id":1354939925,"name":"wz9tnso","latitude":44,"longitude":175}
{"id":1923919417,"name":"tsi56mnio","latitude":39,"longitude":-39}
{"id":1327267150,"name":"ikgargjh","latitude":59,"longitude":9}
{"id":2267172715,"name":"w0g1nak8jm","latitude":-63,"longitude":-144}
{"id":1167701593,"name":"c66ljl85aj","latitude":66,"longitude":-124}
{"id":1353245217,"name":"gytm8wvop","latitude":-57,"longitude":124}
{"id":3015410631,"name":"p7m2u7bm","latitude":34,"longitude":-115}
{"id":101141091,"name":"guuj073v8g","latitude":29,"longitude":-87}
{"id":2844997050,"name":"9gtgqm","latitude":11,"longitude":-106}
{"id":3018303908,"name":"hwi1rvrs","latitude":80,"longitude":8}
{"id":2252931323,"name":"kt1aub","latitude":-57,"longitude":-84}
{"id":3704798069,"name":"57ec03","latitude":70,"longitude":173}
{"id":3775411254,"name":"t7r0n7a0","latitude":-3,"longitude":110}
{"id":1922439538,"name":"krxf5x05cw","latitude":-21,"longitude":165}
{"id":2325113350,"name":"auwm54","latitude":-34,"longitude":116}
{"id":2136270643,"name":"95hf59x","latitude":85,"longitude":-179}
{"id":2570114806,"name":"xorh2u","latitude":13,"longitude":69}
{"id":2497239544,"name":"opznxf2","latitude":-24,"longitude":-53}
{"id":160546194,"name":"ryoxn50z","latitude":-6,"longitude":150}
{"id":2225003939,"name":"55d9oj98x","latitude":67,"longitude":129}
{"id":2457302998,"name":"n2k53cs","latitude":75,"longitude":-166}
{"id":3253970388,"name":"dr6w83b4","latitude":80,"longitude":154}
{"id":789105468,"name":"5btdv6yz","latitude":-25,"longitude":-32}
{"id":3858865386,"name":"8m93e9c","latitude":-35,"longitude":106}
{"id":133157147,"name":"8d93fsp","latitude":-26,"longitude":-143}
{"id":2904283616,"name":"htr2e6","latitude":11,"longitude":-154}
{"id":1087582260,"name":"92rxd2","latitude":19,"longitude":52}
{"id":2646745244,"name":"d1zlgic9c","latitude":60,"longitude":-175}
{"id":3603137419,"name":"6ck0pc","latitude":-32,"longitude":-8}
{"id":4150991711,"name":"qbb2yv","latitude":-87,"longitude":-55}
{"id":2067729087,"name":"y997z6wzrb","latitude":-48,"longitude":-86}
{"id":3634325162,"name":"icqqhlpvdb","latitude":40,"longitude":-108}
{"id":3610367997,"name":"9d95ud494f","latitude":-57,"longitude":22}
{"id":4017582508,"name":"y0wr2ty","latitude":-8,"longitude":133}
{"id":4243164154,"name":"sg2680","latitude":33,"longitude":-100}
{"id":1306556490,"name":"e8pip5","latitude":43,"longitude":102}
{"id":3955379128,"name":"2tv22uo","latitude":52,"longitude":-41}
{"id":39117129,"name":"31moo46z16","latitude":6,"longitude":-101}
{"id":2405138808,"name":"0tov3w8dcb","latitude":24,"longitude":16}
{"id":2492951905,"name":"t90knw3","latitude":26,"longitude":22}
{"id":2311104748,"name":"qj8kquz9j","latitude":3,"longitude":107}
{"id":2053899145,"name":"rcvvia1rc9","latitude":-13,"longitude":5}
{"id":570840332,"name":"tizbq8","latitude":-42,"longitude":72}
{"id":1984325296,"name":"mj8zhlxag","latitude":3,"longitude":-124}
{"id":1840434191,"name":"20px4w9p","latitude":11,"longitude":124}
{"id":3038872384,"name":"qe69psy58s","latitude":38,"longitude":28}
{"id":1223504473,"name":"t4ielz96g","latitude":78,"longitude":-48}
{"id":4052805621,"name":"n8iwaaq7n4","latitude":53,"longitude":145}
{"id":2079474653,"name":"spxlcjz","latitude":31,"longitude":13}
{"id":3906999488,"name":"oyjf3isgx","latitude":-85,"longitude":-115}
{"id":1620583634,"name":"1rtlw6l","latitude":43,"longitude":72}
{"id":1429638541,"name":"bedno9","latitude":37,"longitude":-134}
{"id":3627675068,"name":"ykhtsz5r5","latitude":68,"longitude":-37}
{"id":1764761100,"name":"fxu94rk","latitude":19,"longitude":150}
{"id":3894008344,"name":"otio6m0z","latitude":-54,"longitude":-8}
{"id":2193367239,"name":"qcyoxbp","latitude":-86,"longitude":-114}
{"id":90874242,"name":"35vrhja83n","latitude":24,"longitude":-139}
{"id":2399667626,"name":"jy8rpkn","latitude":22,"longitude":148}
{"id":984927246,"name":"bmbtd6","latitude":61,"longitude":30}
{"id":702495132,"name":"qd320rnx6","latitude":17,"longitude":42}
{"id":3506084082,"name":"44bunhw1h0","latitude":74,"longitude":-53}
{"id":2302677929,"name":"ke9pohn0","latitude":-87,"longitude":-159}
{"id":3061433864,"name":"mlxsog2q2","latitude":26,"longitude":157}
{"id":66930954,"name":"n4btab","latitude":85,"longitude":14}
{"id":1766458428,"name":"m9izyz","latitude":-8,"longitude":87}
{"id":3409343723,"name":"ovkkbt6p","latitude":51,"longitude":96}
{"id":780121319,"name":"bi5xdgrws","latitude":34,"longitude":-37}
{"id":561520663,"name":"ud6li0epgy","latitude":83,"longitude":-173}
{"id":2165076755,"name":"skhhfvqqy","latitude":-67,"longitude":128}
{"id":2929253336,"name":"kk4lq1v","latitude":61,"longitude":-19}
{"id":2233249212,"name":"62fasb9kak","latitude":41,"longitude":-53}
{"id":2055476501,"name":"4pvg7ms","latitude":-34,"longitude":-46}
{"id":3517551044,"name":"5q3vacc","latitude":-85,"longitude":-175}
{"id":831980011,"name":"i8rnlws","latitude":-65,"longitude":176}
{"id":1442563311,"name":"wgq1clopyn","latitude":-59,"longitude":-21}
{"id":2189993853,"name":"m8oiy96y","latitude":32,"longitude":-99}
{"id":3366770288,"name":"20a22cj","latitude":-24,"longitude":149}
{"id":2407694518,"name":"sqhz2qpb5","latitude":-59,"longitude":133}
{"id":1972031505,"name":"t0r6x2g7y","latitude":71,"longitude":179}
{"id":775452825,"name":"52u6noev","latitude":-55,"longitude":120}
{"id":1507078462,"name":"0wqjhe","latitude":-71,"longitude":21}
{"id":1035531322,"name":"jdas2vz","latitude":-22,"longitude":134}
{"id":1757635433,"name":"wunrrdwm6","latitude":38,"longitude":144}
{"id":585568868,"name":"6nmjo1z4e","latitude":86,"longitude":-166}
{"id":2162753636,"name":"yrte9x4hl","latitude":50,"longitude":-104}
{"id":1950013681,"name":"7sa2ix7","latitude":-32,"longitude":141}
{"id":2755053715,"name":"raz3m7pn","latitude":24,"longitude":-87}
{"id":2934909415,"name":"ynhs28a","latitude":-29,"longitude":-23}
{"id":3397643491,"name":"07sroxq","latitude":-78,"longitude":-62}
{"id":2470012856,"name":"krb7846","latitude":27,"longitude":8}
{"id":3945493559,"name":"sx7vet","latitude":33,"longitude":48}
{"id":487145897,"name":"jkyg3pco","latitude":-79,"longitude":-176}
{"id":241349691,"name":"fg7v517x","latitude":58,"longitude":81}
{"id":3346371864,"name":"0uy5ej5","latitude":16,"longitude":73}
{"id":3054384183,"name":"vbbahqr0","latitude":-27,"longitude":-8}
{"id":1275487376,"name":"64g2kmcjw","latitude":9,"longitude":108}
{"id":2429249786,"name":"btocmnyv","latitude":87,"longitude":-25}
{"id":2879405922,"name":"hpgz1jvpq","latitude":-33,"longitude":97}
{"id":3550518020,"name":"nrd7zap","latitude":4,"longitude":121}
{"id":3782295979,"name":"25vkjx7o","latitude":41,"longitude":-5}
{"id":2618556935,"name":"lytrdw","latitude":48,"longitude":-120}
{"id":2895237400,"name":"g2w4ydcme","latitude":-25,"longitude":-97}
{"id":3482374149,"name":"w6znq8hzj","latitude":59,"longitude":-163}
{"id":4282984825,"name":"9qklew73","latitude":-56,"longitude":51}
{"id":2416447849,"name":"5qvipy","latitude":18,"longitude":177}
{"id":2204361979,"name":"jrcecmthn","latitude":-51,"longitude":15}
{"id":3671682976,"name":"dt6jtg20","latitude":41,"longitude":7}
{"id":1794461194,"name":"g3qryfysqn","latitude":0,"longitude":121}
{"id":3008455862,"name":"cezw458ps","latitude":37,"longitude":-51}
{"id":2735281688,"name":"l8hao5hz","latitude":-47,"longitude":-150}
{"id":735577005,"name":"5s87f3bv7k","latitude":-37,"longitude":126}
{"id":1706067564,"name":"xr4n9z","latitude":87,"longitude":-105}
{"id":2321742722,"name":"f76pez7","latitude":33,"longitude":-168}
{"id":2638822336,"name":"raz989q","latitude":-70,"longitude":-99}
{"id":1027434692,"name":"zq4f3p","latitude":-47,"longitude":117}
{"id":3113677623,"name":"xbqrmg","latitude":62,"longitude":-165}
{"id":1101973221,"name":"usg3f44m","latitude":-45,"longitude":98}
{"id":4207232623,"name":"3kep9s","latitude":-75,"longitude":-83}
{"id":4158146213,"name":"ofbfka1yhv","latitude":35,"longitude":171}
{"id":1113886465,"name":"6wi5vuy","latitude":-67,"longitude":-104}
{"id":1488533176,"name":"h2qph8r","latitude":-80,"longitude":3}
{"id":2280560713,"name":"5bjg5h","latitude":-63,"longitude":-4}
{"id":3730051858,"name":"yjecqg2","latitude":-5,"longitude":-118}
{"id":1853371064,"name":"fe0yy08g","latitude":63,"longitude":-77}
{"id":3608908257,"name":"q1wwf5ax1","latitude":65,"longitude":9}
{"id":1091916971,"name":"8202hnlp","latitude":65,"longitude":-47}
{"id":3297078199,"name":"pr7nlcc2","latitude":-17,"longitude":43}
{"id":3414650799,"name":"cmk9yqc","latitude":-6,"longitude":75}
{"id":260918854,"name":"la0hzzr1","latitude":-24,"longitude":-37}
{"id":3546166489,"name":"dcz34rld","latitude":22,"longitude":11}
{"id":3499670561,"name":"yx86xhj2p","latitude":84,"longitude":32}
{"id":2116407550,"name":"tt9ydwg","latitude":-62,"longitude":87}
{"id":2322687352,"name":"64faxcvco","latitude":10,"longitude":-103}
{"id":1294672,"name":"1k7nde07w1","latitude":88,"longitude":-158}
{"id":735652542,"name":"2j4tk2y","latitude":26,"longitude":152}
{"id":3131612164,"name":"ybbsilmgz","latitude":-68,"longitude":102}
{"id":974379352,"name":"1ucjmv","latitude":27,"longitude":-113}
{"id":3468689869,"name":"c1j12gyh3","latitude":81,"longitude":56}
{"id":2750383910,"name":"7bgcsawg","latitude":2,"longitude":-173}
{"id":1093417758,"name":"4167nqlbmo","latitude":-81,"longitude":52}
{"id":1200575532,"name":"7c9ynmk","latitude":55,"longitude":40}
{"id":3331088759,"name":"ej0fv6ay3y","latitude":-79,"longitude":96}
{"id":4047002642,"name":"6ni3og2xs","latitude":57,"longitude":-65}
{"id":225095007,"name":"z14ry1h1kf","latitude":44,"longitude":-69}
{"id":1169420357,"name":"bmzw8jqjlh","latitude":82,"longitude":164}
{"id":254546694,"name":"fklzxqi1cr","latitude":34,"longitude":-152}
{"id":781597755,"name":"2jew69moo","latitude":53,"longitude":83}
{"id":3522923350,"name":"jlj2ej4oox","latitude":3,"longitude":63}
{"id":1544548962,"name":"jz379vys","latitude":81,"longitude":-114}
{"id":594552308,"name":"gbij9ym2","latitude":50,"longitude":-95}
{"id":910258572,"name":"dgqi3b","latitude":-66,"longitude":-166}
{"id":582111171,"name":"83xy9qzk8","latitude":-75,"longitude":-142}
{"id":2671312109,"name":"82hgef6b","latitude":50,"longitude":153}
{"id":887126008,"name":"js468ryq08","latitude":33,"longitude":59}
{"id":3163222019,"name":"5w68en","latitude":27,"longitude":42}
{"id":2112485180,"name":"qh9cb1","latitude":7,"longitude":-71}
{"id":817034689,"name":"zcsj0xg","latitude":-54,"longitude":-146}
{"id":1853295978,"name":"gosyopiu4k","latitude":-80,"longitude":40}
{"id":2282962095,"name":"shbc7yjw5","latitude":12,"longitude":20}
{"id":2115451234,"name":"ekgyi20sj","latitude":-73,"longitude":-60}
{"id":3732004239,"name":"si7wga","latitude":-41,"longitude":-11}
{"id":1326636252,"name":"ke9j5f","latitude":-81,"longitude":21}
{"id":3410004471,"name":"i6iigx","latitude":19,"longitude":-60}
